^C:\USERS\JGRIGLEY\DOCUMENTS\VISUAL STUDIO 2013\PROJECTS\MINER\MINER\STDAFX.CPP
C:\USERS\JGRIGLEY\DOCUMENTS\VISUAL STUDIO 2013\PROJECTS\MINER\MINER\DEBUG\MINER.PCH
C:\USERS\JGRIGLEY\DOCUMENTS\VISUAL STUDIO 2013\PROJECTS\MINER\MINER\DEBUG\VC120.PDB
C:\USERS\JGRIGLEY\DOCUMENTS\VISUAL STUDIO 2013\PROJECTS\MINER\MINER\DEBUG\VC120.IDB
C:\USERS\JGRIGLEY\DOCUMENTS\VISUAL STUDIO 2013\PROJECTS\MINER\MINER\DEBUG\STDAFX.OBJ
^C:\USERS\JGRIGLEY\DOCUMENTS\VISUAL STUDIO 2013\PROJECTS\MINER\MINER\BLOCK.CPP|C:\USERS\JGRIGLEY\DOCUMENTS\VISUAL STUDIO 2013\PROJECTS\MINER\MINER\FIELD.CPP|C:\USERS\JGRIGLEY\DOCUMENTS\VISUAL STUDIO 2013\PROJECTS\MINER\MINER\MINER.CPP|C:\USERS\JGRIGLEY\DOCUMENTS\VISUAL STUDIO 2013\PROJECTS\MINER\MINER\PLAYER.CPP|C:\USERS\JGRIGLEY\DOCUMENTS\VISUAL STUDIO 2013\PROJECTS\MINER\MINER\UTILITY.CPP
C:\USERS\JGRIGLEY\DOCUMENTS\VISUAL STUDIO 2013\PROJECTS\MINER\MINER\DEBUG\VC120.PDB
C:\USERS\JGRIGLEY\DOCUMENTS\VISUAL STUDIO 2013\PROJECTS\MINER\MINER\DEBUG\VC120.IDB
C:\USERS\JGRIGLEY\DOCUMENTS\VISUAL STUDIO 2013\PROJECTS\MINER\MINER\DEBUG\BLOCK.OBJ
C:\USERS\JGRIGLEY\DOCUMENTS\VISUAL STUDIO 2013\PROJECTS\MINER\MINER\DEBUG\MINER.OBJ
C:\USERS\JGRIGLEY\DOCUMENTS\VISUAL STUDIO 2013\PROJECTS\MINER\MINER\DEBUG\UTILITY.OBJ
C:\USERS\JGRIGLEY\DOCUMENTS\VISUAL STUDIO 2013\PROJECTS\MINER\MINER\DEBUG\PLAYER.OBJ
^C:\USERS\JGRIGLEY\DOCUMENTS\VISUAL STUDIO 2013\PROJECTS\MINER\MINER\BLOCK.CPP
C:\USERS\JGRIGLEY\DOCUMENTS\VISUAL STUDIO 2013\PROJECTS\MINER\MINER\DEBUG\VC120.PDB
^C:\USERS\JGRIGLEY\DOCUMENTS\VISUAL STUDIO 2013\PROJECTS\MINER\MINER\FIELD.CPP
C:\USERS\JGRIGLEY\DOCUMENTS\VISUAL STUDIO 2013\PROJECTS\MINER\MINER\DEBUG\VC120.PDB
C:\USERS\JGRIGLEY\DOCUMENTS\VISUAL STUDIO 2013\PROJECTS\MINER\MINER\DEBUG\VC120.IDB
C:\USERS\JGRIGLEY\DOCUMENTS\VISUAL STUDIO 2013\PROJECTS\MINER\MINER\DEBUG\FIELD.OBJ
^C:\USERS\JGRIGLEY\DOCUMENTS\VISUAL STUDIO 2013\PROJECTS\MINER\MINER\MINER.CPP
C:\USERS\JGRIGLEY\DOCUMENTS\VISUAL STUDIO 2013\PROJECTS\MINER\MINER\DEBUG\VC120.PDB
^C:\USERS\JGRIGLEY\DOCUMENTS\VISUAL STUDIO 2013\PROJECTS\MINER\MINER\PLAYER.CPP
C:\USERS\JGRIGLEY\DOCUMENTS\VISUAL STUDIO 2013\PROJECTS\MINER\MINER\DEBUG\VC120.PDB
C:\USERS\JGRIGLEY\DOCUMENTS\VISUAL STUDIO 2013\PROJECTS\MINER\MINER\DEBUG\VC120.IDB
C:\USERS\JGRIGLEY\DOCUMENTS\VISUAL STUDIO 2013\PROJECTS\MINER\MINER\DEBUG\PLAYER.OBJ
^C:\USERS\JGRIGLEY\DOCUMENTS\VISUAL STUDIO 2013\PROJECTS\MINER\MINER\UTILITY.CPP
C:\USERS\JGRIGLEY\DOCUMENTS\VISUAL STUDIO 2013\PROJECTS\MINER\MINER\DEBUG\VC120.PDB
^C:\USERS\JGRIGLEY\DOCUMENTS\VISUAL STUDIO 2013\PROJECTS\MINER\MINER\BLOCK.CPP|C:\USERS\JGRIGLEY\DOCUMENTS\VISUAL STUDIO 2013\PROJECTS\MINER\MINER\FIELD.CPP|C:\USERS\JGRIGLEY\DOCUMENTS\VISUAL STUDIO 2013\PROJECTS\MINER\MINER\MINER.CPP|C:\USERS\JGRIGLEY\DOCUMENTS\VISUAL STUDIO 2013\PROJECTS\MINER\MINER\PLAYER.CPP
C:\USERS\JGRIGLEY\DOCUMENTS\VISUAL STUDIO 2013\PROJECTS\MINER\MINER\DEBUG\VC120.PDB
C:\USERS\JGRIGLEY\DOCUMENTS\VISUAL STUDIO 2013\PROJECTS\MINER\MINER\DEBUG\VC120.IDB
C:\USERS\JGRIGLEY\DOCUMENTS\VISUAL STUDIO 2013\PROJECTS\MINER\MINER\DEBUG\FIELD.OBJ
